{
  "root_group": {
    "checks": [
      {
        "name": "status was 200",
        "path": "::status was 200",
        "id": "1461660757a913d4fb82ac4c5e1009de",
        "passes": 10,
        "fails": 0
      }
    ],
    "name": "",
    "path": "",
    "id": "d41d8cd98f00b204e9800998ecf8427e",
    "groups": []
  },
  "options": {
    "summaryTrendStats": ["avg", "min", "med", "max", "p(90)", "p(95)"],
    "summaryTimeUnit": "",
    "noColor": false
  },
  "state": {
    "isStdOutTTY": true,
    "isStdErrTTY": true,
    "testRunDurationMs": 3716.0505
  },
  "metrics": {
    "vus": {
      "contains": "default",
      "values": { "max": 10, "value": 10, "min": 10 },
      "type": "gauge"
    },
    "http_req_blocked": {
      "type": "trend",
      "contains": "time",
      "values": {
        "med": 1070.7408500000001,
        "max": 1072.0997,
        "p(90)": 1071.84815,
        "p(95)": 1071.973925,
        "avg": 1069.13805,
        "min": 1061.2081
      }
    },
    "http_req_sending": {
      "type": "trend",
      "contains": "time",
      "values": {
        "p(95)": 0.7442649999999997,
        "avg": 0.28243,
        "min": 0,
        "med": 0.1334,
        "max": 0.8839,
        "p(90)": 0.6046299999999999
      }
    },
    "http_req_waiting": {
      "contains": "time",
      "values": {
        "max": 1617.6475,
        "p(90)": 1599.06394,
        "p(95)": 1608.35572,
        "avg": 1184.91122,
        "min": 964.8738,
        "med": 1117.2559999999999
      },
      "type": "trend"
    },
    "vus_max": {
      "type": "gauge",
      "contains": "default",
      "values": { "min": 10, "max": 10, "value": 10 }
    },
    "http_req_tls_handshaking": {
      "contains": "time",
      "values": {
        "min": 42.0472,
        "med": 49.28045,
        "max": 54.0107,
        "p(90)": 52.52543,
        "p(95)": 53.268065,
        "avg": 49.157000000000004
      },
      "type": "trend"
    },
    "http_req_connecting": {
      "type": "trend",
      "contains": "time",
      "values": {
        "avg": 37.629220000000004,
        "min": 35.8535,
        "med": 37.097,
        "max": 40.0277,
        "p(90)": 39.544399999999996,
        "p(95)": 39.78605
      }
    },
    "data_received": {
      "contains": "data",
      "values": { "count": 267207, "rate": 71906.18103817481 },
      "type": "counter"
    },
    "http_req_failed": {
      "type": "rate",
      "contains": "default",
      "values": { "rate": 0, "passes": 0, "fails": 10 }
    },
    "checks": {
      "type": "rate",
      "contains": "default",
      "values": { "rate": 1, "passes": 10, "fails": 0 }
    },
    "http_req_duration{expected_response:true}": {
      "type": "trend",
      "contains": "time",
      "values": {
        "p(95)": 1611.931395,
        "avg": 1188.2863300000001,
        "min": 969.8797,
        "med": 1120.0875,
        "max": 1623.1692,
        "p(90)": 1600.69359
      }
    },
    "iteration_duration": {
      "contains": "time",
      "values": {
        "avg": 3273.3199699999996,
        "min": 3044.7488,
        "med": 3207.63805,
        "max": 3714.8122,
        "p(90)": 3685.87198,
        "p(95)": 3700.3420899999996
      },
      "type": "trend"
    },
    "http_req_duration": {
      "type": "trend",
      "contains": "time",
      "values": {
        "med": 1120.0875,
        "max": 1623.1692,
        "p(90)": 1600.69359,
        "p(95)": 1611.931395,
        "avg": 1188.2863300000001,
        "min": 969.8797
      }
    },
    "iterations": {
      "type": "counter",
      "contains": "default",
      "values": { "count": 10, "rate": 2.691029091235439 }
    },
    "data_sent": {
      "type": "counter",
      "contains": "data",
      "values": { "rate": 1708.8034729345038, "count": 6350 }
    },
    "http_req_receiving": {
      "contains": "time",
      "values": {
        "max": 7.9016,
        "p(90)": 5.6396299999999995,
        "p(95)": 6.770614999999998,
        "avg": 3.0926800000000005,
        "min": 0.4909,
        "med": 2.4516999999999998
      },
      "type": "trend"
    },
    "http_reqs": {
      "type": "counter",
      "contains": "default",
      "values": { "count": 10, "rate": 2.691029091235439 }
    }
  }
}
